…
res_viral_sig <- res_viral %>%
  filter(padj < significant_padj_threshold)

write_csv(res_viral_sig, "../analysis_outs/res_viral_sig.csv")

print(deg_count)
```

    ## # A tibble: 106 × 2
    ##    treatment DEG_count
    ##    <chr>         <int>
    ##  1 IL2            3853
    ##  2 TNFSF18        2932
    ##  3 IL4            2735
    ##  4 TNF            2666
    ##  5 IFNB1          2332
    ##  6 IL21           2101
    ##  7 IFNA           1986
    ##  8 CCL19          1789
    ##  9 CXCL16         1752
    ## 10 IL1F8          1734
    ## # ℹ 96 more rows
…
